Using DEBIT with dispersed inputs — debit_map_seq • scrutiny
…
# Results from testing some few rows:
out <- pigs3 %>%
  dplyr::slice(3:4) %>%
  debit_map_seq()

out
#> # A tibble: 30 × 14
#>    x     sd        n consistency rounding   sd_lower sd_incl_lower sd_upper
#>    <chr> <chr> <int> <lgl>       <chr>         <dbl> <lgl>            <dbl>
#>  1 0.14  0.35   1683 TRUE        up_or_down    0.345 TRUE             0.355
#>  2 0.15  0.35   1683 TRUE        up_or_down    0.345 TRUE             0.355
#>  3 0.16  0.35   1683 FALSE       up_or_down    0.345 TRUE             0.355
#>  4 0.17  0.35   1683 FALSE       up_or_down    0.345 TRUE             0.355
#>  5 0.18  0.35   1683 FALSE       up_or_down    0.345 TRUE             0.355
#>  6 0.20  0.35   1683 FALSE       up_or_down    0.345 TRUE             0.355
#>  7 0.21  0.35   1683 FALSE       up_or_down    0.345 TRUE             0.355
#>  8 0.22  0.35   1683 FALSE       up_or_down    0.345 TRUE             0.355
#>  9 0.23  0.35   1683 FALSE       up_or_down    0.345 TRUE             0.355
#> 10 0.24  0.35   1683 FALSE       up_or_down    0.345 TRUE             0.355
#> # ℹ 20 more rows
#> # ℹ 6 more variables: sd_incl_upper <lgl>, x_lower <dbl>, x_upper <dbl>,
#> #   diff_var <int>, case <int>, var <chr>
…
