…
debit_map_total_n(df)
#> # A tibble: 48 × 15
#>    x     sd        n n_change consistency both_consistent rounding   sd_lower
#>    <chr> <chr> <int>    <int> <lgl>       <lgl>           <chr>         <dbl>
#>  1 0.30  0.17     35        0 FALSE       FALSE           up_or_down    0.165
#>  2 0.28  0.10     35        0 FALSE       FALSE           up_or_down    0.095
#>  3 0.30  0.17     34       -1 FALSE       FALSE           up_or_down    0.165
#>  4 0.28  0.10     36        1 FALSE       FALSE           up_or_down    0.095
#>  5 0.30  0.17     33       -2 FALSE       FALSE           up_or_down    0.165
#>  6 0.28  0.10     37        2 FALSE       FALSE           up_or_down    0.095
#>  7 0.30  0.17     32       -3 FALSE       FALSE           up_or_down    0.165
#>  8 0.28  0.10     38        3 FALSE       FALSE           up_or_down    0.095
#>  9 0.30  0.17     31       -4 FALSE       FALSE           up_or_down    0.165
#> 10 0.28  0.10     39        4 FALSE       FALSE           up_or_down    0.095
#> # ℹ 38 more rows
#> # ℹ 7 more variables: sd_incl_lower <lgl>, sd_upper <dbl>, sd_incl_upper <lgl>,
#> #   x_lower <dbl>, x_upper <dbl>, case <int>, dir <fct>
```
