Use DEBIT with hypothetical group sizes — debit_map_total_n • scrutiny
…
# Run `debit_map_total_n()` on data like these:
df <- tibble::tribble(
  ~x1,  ~x2,  ~sd1,  ~sd2,  ~n,
  "0.30", "0.28", "0.17", "0.10", 70,
  "0.41", "0.39", "0.09", "0.15", 65
)
df
#> # A tibble: 2 × 5
#>   x1    x2    sd1   sd2       n
#>   <chr> <chr> <chr> <chr> <dbl>
#> 1 0.30  0.28  0.17  0.10     70
#> 2 0.41  0.39  0.09  0.15     65

debit_map_total_n(df)
#> # A tibble: 48 × 15
#>    x     sd        n n_change consistency both_consistent rounding   sd_lower
#>    <chr> <chr> <int>    <int> <lgl>       <lgl>           <chr>         <dbl>
#>  1 0.30  0.17     35        0 FALSE       FALSE           up_or_down    0.165
#>  2 0.28  0.10     35        0 FALSE       FALSE           up_or_down    0.095
#>  3 0.30  0.17     34       -1 FALSE       FALSE           up_or_down    0.165
#>  4 0.28  0.10     36        1 FALSE       FALSE           up_or_down    0.095
#>  5 0.30  0.17     33       -2 FALSE       FALSE           up_or_down    0.165
#>  6 0.28  0.10     37        2 FALSE       FALSE           up_or_down    0.095
#>  7 0.30  0.17     32       -3 FALSE       FALSE           up_or_down    0.165
#>  8 0.28  0.10     38        3 FALSE       FALSE           up_or_down    0.095
#>  9 0.30  0.17     31       -4 FALSE       FALSE           up_or_down    0.165
#> 10 0.28  0.10     39        4 FALSE       FALSE           up_or_down    0.095
#> # ℹ 38 more rows
#> # ℹ 7 more variables: sd_incl_lower <lgl>, sd_upper <dbl>, sd_incl_upper <lgl>,
#> #   x_lower <dbl>, x_upper <dbl>, case <int>, dir <fct>
…
