Detect duplicate values — duplicate_detect • scrutiny
…
# If there are many values and/or few
# characters per value, `duplicate_detect()`
# can be misleading:
iris %.html'>%>%
  duplicate_detect()
#> # A tibble: 150 × 8
#>    Sepal.Length Sepal.Length_dup Sepal.Width Sepal.Width_dup Petal.Length
#>           <dbl> <lgl>                  <dbl> <lgl>                  <dbl>
#>  1          5.1 TRUE                     3.5 TRUE                     1.4
#>  2          4.9 TRUE                     3   TRUE                     1.4
#>  3          4.7 TRUE                     3.2 TRUE                     1.3
#>  4          4.6 TRUE                     3.1 TRUE                     1.5
#>  5          5   TRUE                     3.6 TRUE                     1.4
#>  6          5.4 TRUE                     3.9 TRUE                     1.7
#>  7          4.6 TRUE                     3.4 TRUE                     1.4
#>  8          5   TRUE                     3.4 TRUE                     1.5
#>  9          4.4 TRUE                     2.9 TRUE                     1.4
#> 10          4.9 TRUE                     3.1 TRUE                     1.5
#> # … with 140 more rows, and 3 more variables: Petal.Length_dup <lgl>,
#> #   Petal.Width <dbl>, Petal.Width_dup <lgl>
…
