Count duplicate values — duplicate_count • scrutiny
…
    See also

    duplicate_detect() checks if values have duplicates.

    Examples

# Count duplicate values...
BJsales %.html'>%>%
  duplicate_count()
#> # A tibble: 22 × 2
#>    value count
#>    <dbl> <int>
#>  1  209.     4
#>  2  219.     3
#>  3  257.     3
#>  4  258.     3
#>  5  202.     2
#>  6  210.     2
#>  7  211.     2
#>  8  212.     2
#>  9  215.     2
#> 10  216.     2
#> # … with 12 more rows
…
