Count duplicate values by column — duplicate_count_colpair • scrutiny
…
duplicate_count() for a frequency table.

duplicate_tally() to show instances of a value next to each instance.

janitor::get_dupes() to search for duplicate rows.

corrr::colpair_map(), a versatile tool for pairwise column analysis which
the present function wraps.

    Examples

# Basic usage:
mtcars %>%
  duplicate_count_colpair()
#> # A tibble: 55 × 7
#>    x     y     count total_x total_y rate_x rate_y
#>    <chr> <chr> <int>   <int>   <int>  <dbl>  <dbl>
#>  1 cyl   carb     32      32      32 1      1     
#>  2 vs    am       32      32      32 1      1     
#>  3 gear  carb     27      32      32 0.844  0.844 
#>  4 vs    carb     14      32      32 0.438  0.438 
#>  5 am    carb     13      32      32 0.406  0.406 
#>  6 cyl   gear     11      32      32 0.344  0.344 
#>  7 drat  wt        3      32      32 0.0938 0.0938
#>  8 mpg   qsec      2      32      32 0.0625 0.0625
#>  9 drat  gear      1      32      32 0.0312 0.0312
#> 10 drat  carb      1      32      32 0.0312 0.0312
#> # ℹ 45 more rows
…
