Create new *_map_seq() functions — function_map_seq • scrutiny
…
# Fire up the function factory:
schlim_map_seq <- function_map_seq(
  .fun = schlim_map,
  .reported = c("y", "n"),
  .name_test = "SCHLIM",
)

# Create some example data:
df1 <- tibble::tibble(y = 16:25, n = 3:12)

# Call the manufactured function:
out <- schlim_map_seq(df1)
out
#> # A tibble: 120 × 5
#>        y     n consistency  case var  
#>    <int> <int> <lgl>       <int> <chr>
#>  1    15     7 FALSE           1 y    
#>  2    16     7 FALSE           1 y    
#>  3    17     7 FALSE           1 y    
#>  4    18     7 FALSE           1 y    
#>  5    19     7 FALSE           1 y    
#>  6    21     7 FALSE           1 y    
#>  7    22     7 TRUE            1 y    
#>  8    23     7 TRUE            1 y    
#>  9    24     7 TRUE            1 y    
#> 10    25     7 TRUE            1 y    
#> # … with 110 more rows
…
