Create new *_map_total_n() functions — function_map_total_n • scrutiny
…
# Call the manufactured function:
out <- schlim_map_total_n(df1)
out
#> # A tibble: 240 × 7
#>        y     n n_change consistency both_consistent  case dir  
#>    <int> <dbl>    <dbl> <lgl>       <lgl>           <int> <chr>
#>  1    16     6        0 FALSE       FALSE               1 forth
#>  2    26     6        0 TRUE        FALSE               1 forth
#>  3    16     5       -1 TRUE        TRUE                1 forth
#>  4    26     7        1 TRUE        TRUE                1 forth
#>  5    16     4       -2 TRUE        TRUE                1 forth
#>  6    26     8        2 TRUE        TRUE                1 forth
#>  7    16     3       -3 TRUE        FALSE               1 forth
#>  8    26     9        3 FALSE       FALSE               1 forth
#>  9    16     2       -4 TRUE        FALSE               1 forth
#> 10    26    10        4 FALSE       FALSE               1 forth
#> # … with 230 more rows
…
