GRIMMER-testing with dispersed inputs — grimmer_map_seq • scrutiny
…
# All the results:
out <- grimmer_map_seq(pigs5, include_consistent = TRUE)
out
#> # A tibble: 360 × 7
#>    x     sd        n consistency reason             case var  
#>    <chr> <chr> <dbl> <lgl>       <chr>             <int> <chr>
#>  1 7.17  5.30     38 FALSE       GRIM inconsistent     1 x    
#>  2 7.18  5.30     38 TRUE        Passed all            1 x    
#>  3 7.19  5.30     38 FALSE       GRIM inconsistent     1 x    
#>  4 7.20  5.30     38 FALSE       GRIM inconsistent     1 x    
#>  5 7.21  5.30     38 TRUE        Passed all            1 x    
#>  6 7.23  5.30     38 FALSE       GRIM inconsistent     1 x    
#>  7 7.24  5.30     38 TRUE        Passed all            1 x    
#>  8 7.25  5.30     38 FALSE       GRIM inconsistent     1 x    
#>  9 7.26  5.30     38 TRUE        Passed all            1 x    
#> 10 7.27  5.30     38 FALSE       GRIM inconsistent     1 x    
#> # … with 350 more rows
…
