…
# All the results:
out <- grim_map_seq(pigs1, include_consistent = TRUE)
out
#> # A tibble: 240 × 7
#>    x         n consistency probability diff_var  case var  
#>    <chr> <int> <lgl>             <dbl>    <int> <int> <chr>
#>  1 7.17     32 FALSE              0.68       -5     1 x    
#>  2 7.18     32 FALSE              0.68       -4     1 x    
#>  3 7.19     32 TRUE               0.68       -3     1 x    
#>  4 7.20     32 FALSE              0.68       -2     1 x    
#>  5 7.21     32 FALSE              0.68       -1     1 x    
#>  6 7.23     32 FALSE              0.68        1     1 x    
#>  7 7.24     32 FALSE              0.68        2     1 x    
#>  8 7.25     32 TRUE               0.68        3     1 x    
#>  9 7.26     32 FALSE              0.68        4     1 x    
#> 10 7.27     32 FALSE              0.68        5     1 x    
#> # ℹ 230 more rows
…
