…
out
#> # A tibble: 90 × 8
#>    x     sd        n consistency reason            diff_var  case var  
#>    <chr> <chr> <int> <lgl>       <chr>                <int> <int> <chr>
#>  1 7.17  5.30     38 FALSE       GRIM inconsistent       -5     1 x    
#>  2 7.18  5.30     38 TRUE        Passed all              -4     1 x    
#>  3 7.19  5.30     38 FALSE       GRIM inconsistent       -3     1 x    
#>  4 7.20  5.30     38 FALSE       GRIM inconsistent       -2     1 x    
#>  5 7.21  5.30     38 TRUE        Passed all              -1     1 x    
#>  6 7.23  5.30     38 FALSE       GRIM inconsistent        1     1 x    
#>  7 7.24  5.30     38 TRUE        Passed all               2     1 x    
#>  8 7.25  5.30     38 FALSE       GRIM inconsistent        3     1 x    
#>  9 7.26  5.30     38 TRUE        Passed all               4     1 x    
#> 10 7.27  5.30     38 FALSE       GRIM inconsistent        5     1 x    
#> # ℹ 80 more rows
…
