Restore trailing zeros — restore_zeros • scrutiny
…
# Alternatively, supply a number via `width`:
vec %>%
  restore_zeros(width = 6)
#> [1] "212.000000" "75.380000"  "4.962500"  

# For better printing:
iris <- tibble::as_tibble(iris)

# Apply `restore_zeros()` to all numeric
# columns, but not to the factor column:
iris %>%
  restore_zeros_df()
#> # A tibble: 150 × 5
#>    Sepal.Length Sepal.Width Petal.Length Petal.Width Species
#>    <chr>        <chr>       <chr>        <chr>       <fct>  
#>  1 5.1          3.5         1.4          0.2         setosa 
#>  2 4.9          3.0         1.4          0.2         setosa 
#>  3 4.7          3.2         1.3          0.2         setosa 
#>  4 4.6          3.1         1.5          0.2         setosa 
#>  5 5.0          3.6         1.4          0.2         setosa 
#>  6 5.4          3.9         1.7          0.4         setosa 
#>  7 4.6          3.4         1.4          0.3         setosa 
#>  8 5.0          3.4         1.5          0.2         setosa 
#>  9 4.4          2.9         1.4          0.2         setosa 
#> 10 4.9          3.1         1.5          0.1         setosa 
#> # ℹ 140 more rows

# Select columns as in `dplyr::select()`:
iris %>%
  restore_zeros_df(starts_with("Sepal"), width = 3)
#> # A tibble: 150 × 5
#>    Sepal.Length Sepal.Width Petal.Length Petal.Width Species
#>    <chr>        <chr>              <dbl>       <dbl> <fct>  
#>  1 5.100        3.500                1.4         0.2 setosa 
#>  2 4.900        3.000                1.4         0.2 setosa 
#>  3 4.700        3.200                1.3         0.2 setosa 
#>  4 4.600        3.100                1.5         0.2 setosa 
#>  5 5.000        3.600                1.4         0.2 setosa 
#>  6 5.400        3.900                1.7         0.4 setosa 
#>  7 4.600        3.400                1.4         0.3 setosa 
#>  8 5.000        3.400                1.5         0.2 setosa 
#>  9 4.400        2.900                1.4         0.2 setosa 
#> 10 4.900        3.100                1.5         0.1 setosa 
#> # ℹ 140 more rows
…
