Consistency tests in depth • scrutiny
…
Let’s write a sequence mapper for SCHLIM:

schlim_map_seq <- function_map_seq(
  .fun = schlim_map,
  .reported = c("y", "n"),
  .name_test = "SCHLIM"
)

# Test dispersed sequences:
out_seq <- schlim_map_seq(df1)
out_seq
#> # A tibble: 120 × 6
#>        y     n consistency diff_var  case var  
#>    <int> <int> <lgl>          <int> <int> <chr>
#>  1    15     7 FALSE             -5     1 y    
#>  2    16     7 FALSE             -4     1 y    
#>  3    17     7 FALSE             -3     1 y    
#>  4    18     7 FALSE             -2     1 y    
#>  5    19     7 FALSE             -1     1 y    
#>  6    21     7 FALSE              1     1 y    
#>  7    22     7 TRUE               2     1 y    
#>  8    23     7 TRUE               3     1 y    
#>  9    24     7 TRUE               4     1 y    
#> 10    25     7 TRUE               5     1 y    
#> # ℹ 110 more rows
…
# Example data:
df_groups_schlim <- tibble::tribble(
  ~y1, ~y2, ~n,
   84,  37,  29,
   61,  55,  26
)

# Test dispersed sequences:
out_total_n <- schlim_map_total_n(df_groups_schlim)
out_total_n
#> # A tibble: 48 × 7
#>        y     n n_change consistency both_consistent  case dir  
#>    <dbl> <int>    <int> <lgl>       <lgl>           <int> <fct>
#>  1    84    14        0 TRUE        FALSE               1 forth
#>  2    37    15        0 FALSE       FALSE               1 forth
#>  3    84    13       -1 TRUE        FALSE               1 forth
#>  4    37    16        1 FALSE       FALSE               1 forth
#>  5    84    12       -2 TRUE        FALSE               1 forth
#>  6    37    17        2 FALSE       FALSE               1 forth
#>  7    84    11       -3 TRUE        FALSE               1 forth
#>  8    37    18        3 FALSE       FALSE               1 forth
#>  9    84    10       -4 TRUE        FALSE               1 forth
#> 10    37    19        4 FALSE       FALSE               1 forth
#> # ℹ 38 more rows
…
