…
DEBIT analysts might be interested in a mean or percentage value’s
numeric neighborhood. Suppose you found DEBIT inconsistencies, as in out
example `pigs3` data. You might wonder whether they are due to small
reporting or computing errors.

Use
[`debit_map_seq()`](https://lhdjung.github.io/scrutiny/reference/debit_map_seq.md)
to use DEBIT for the values surrounding the reported means, SDs, and
sample sizes:

``` r
out_seq1 <- debit_map_seq(pigs3)
out_seq1
#> # A tibble: 30 × 14
#>    x     sd        n consistency rounding   sd_lower sd_incl_lower sd_upper
#>    <chr> <chr> <int> <lgl>       <chr>         <dbl> <lgl>            <dbl>
#>  1 0.14  0.35   1683 TRUE        up_or_down    0.345 TRUE             0.355
#>  2 0.15  0.35   1683 TRUE        up_or_down    0.345 TRUE             0.355
#>  3 0.16  0.35   1683 FALSE       up_or_down    0.345 TRUE             0.355
#>  4 0.17  0.35   1683 FALSE       up_or_down    0.345 TRUE             0.355
#>  5 0.18  0.35   1683 FALSE       up_or_down    0.345 TRUE             0.355
#>  6 0.20  0.35   1683 FALSE       up_or_down    0.345 TRUE             0.355
#>  7 0.21  0.35   1683 FALSE       up_or_down    0.345 TRUE             0.355
#>  8 0.22  0.35   1683 FALSE       up_or_down    0.345 TRUE             0.355
#>  9 0.23  0.35   1683 FALSE       up_or_down    0.345 TRUE             0.355
#> 10 0.24  0.35   1683 FALSE       up_or_down    0.345 TRUE             0.355
#> # ℹ 20 more rows
#> # ℹ 6 more variables: sd_incl_upper <lgl>, x_lower <dbl>, x_upper <dbl>,
#> #   diff_var <int>, case <int>, var <chr>
```
…
Here is an example:

``` r
out_total_n <- tibble::tribble(
  ~x1,     ~x2,   ~sd1,   ~sd2,  ~n,
  "0.30", "0.28", "0.17", "0.10", 70,
  "0.41", "0.39", "0.09", "0.15", 65
)

out_total_n <- debit_map_total_n(out_total_n)
out_total_n
#> # A tibble: 48 × 15
#>    x     sd        n n_change consistency both_consistent rounding   sd_lower
#>    <chr> <chr> <int>    <int> <lgl>       <lgl>           <chr>         <dbl>
#>  1 0.30  0.17     35        0 FALSE       FALSE           up_or_down    0.165
#>  2 0.28  0.10     35        0 FALSE       FALSE           up_or_down    0.095
#>  3 0.30  0.17     34       -1 FALSE       FALSE           up_or_down    0.165
#>  4 0.28  0.10     36        1 FALSE       FALSE           up_or_down    0.095
#>  5 0.30  0.17     33       -2 FALSE       FALSE           up_or_down    0.165
#>  6 0.28  0.10     37        2 FALSE       FALSE           up_or_down    0.095
#>  7 0.30  0.17     32       -3 FALSE       FALSE           up_or_down    0.165
#>  8 0.28  0.10     38        3 FALSE       FALSE           up_or_down    0.095
#>  9 0.30  0.17     31       -4 FALSE       FALSE           up_or_down    0.165
#> 10 0.28  0.10     39        4 FALSE       FALSE           up_or_down    0.095
#> # ℹ 38 more rows
#> # ℹ 7 more variables: sd_incl_lower <lgl>, sd_upper <dbl>, sd_incl_upper <lgl>,
#> #   x_lower <dbl>, x_upper <dbl>, case <int>, dir <fct>
…
