GRIMMER • scrutiny
…
Testing numeric sequences with grimmer_map_seq()

GRIMMER analysts might be interested in a mean or percentage value’s
numeric neighborhood. Suppose you found multiple GRIMMER inconsistencies
as in out example pigs5 data. You might wonder whether they
are due to small reporting or computing errors.

Use grimmer_map_seq() to GRIMMER-test the values
surrounding the reported means and sample sizes:

out_seq1 <- grimmer_map_seq(pigs5)
out_seq1
#> # A tibble: 150 × 8
#>    x     sd        n consistency reason            diff_var  case var  
#>    <chr> <chr> <int> <lgl>       <chr>                <int> <int> <chr>
#>  1 7.17  5.30     38 FALSE       GRIM inconsistent       -5     1 x    
#>  2 7.18  5.30     38 TRUE        Passed all              -4     1 x    
#>  3 7.19  5.30     38 FALSE       GRIM inconsistent       -3     1 x    
#>  4 7.20  5.30     38 FALSE       GRIM inconsistent       -2     1 x    
#>  5 7.21  5.30     38 TRUE        Passed all              -1     1 x    
#>  6 7.23  5.30     38 FALSE       GRIM inconsistent        1     1 x    
#>  7 7.24  5.30     38 TRUE        Passed all               2     1 x    
#>  8 7.25  5.30     38 FALSE       GRIM inconsistent        3     1 x    
#>  9 7.26  5.30     38 TRUE        Passed all               4     1 x    
#> 10 7.27  5.30     38 FALSE       GRIM inconsistent        5     1 x    
#> # ℹ 140 more rows
…
Here is an example:

flying_pigs5 <- tibble::tribble(
    ~x1,    ~x2,    ~sd1,   ~sd2,   ~n,
    "3.43", "5.28", "1.09", "2.12", 70,
    "2.97", "4.42", "0.43", "1.65", 65
)

out_total_n <- grimmer_map_total_n(flying_pigs5)
out_total_n
#> # A tibble: 48 × 9
#>    x     sd        n n_change consistency both_consistent reason      case dir  
#>    <chr> <chr> <int>    <int> <lgl>       <lgl>           <chr>      <int> <fct>
#>  1 3.43  1.09     35        0 TRUE        FALSE           Passed all     1 forth
#>  2 5.28  2.12     35        0 FALSE       FALSE           GRIM inco…     1 forth
#>  3 3.43  1.09     34       -1 FALSE       FALSE           GRIM inco…     1 forth
#>  4 5.28  2.12     36        1 TRUE        FALSE           Passed all     1 forth
#>  5 3.43  1.09     33       -2 FALSE       FALSE           GRIM inco…     1 forth
#>  6 5.28  2.12     37        2 FALSE       FALSE           GRIM inco…     1 forth
#>  7 3.43  1.09     32       -3 FALSE       FALSE           GRIM inco…     1 forth
#>  8 5.28  2.12     38        3 FALSE       FALSE           GRIM inco…     1 forth
#>  9 3.43  1.09     31       -4 FALSE       FALSE           GRIM inco…     1 forth
#> 10 5.28  2.12     39        4 FALSE       FALSE           GRIMMER i…     1 forth
#> # ℹ 38 more rows
…
