…
### Testing numeric sequences with `grim_map_seq()`

GRIM analysts might be interested in a mean or percentage value’s
numeric neighborhood. Suppose you found multiple GRIM inconsistencies as
in our example `pigs1` data. You might wonder whether they are due to
small reporting or computing errors.

Use
[`grim_map_seq()`](https://lhdjung.github.io/scrutiny/reference/grim_map_seq.md)
to GRIM-test the values surrounding the reported means and sample sizes:

``` r
out_seq1 <- grim_map_seq(pigs1)
out_seq1
#> # A tibble: 160 × 7
#>    x         n consistency probability diff_var  case var  
#>    <chr> <int> <lgl>             <dbl>    <int> <int> <chr>
#>  1 4.69     25 FALSE              0.75       -5     1 x    
#>  2 4.70     25 FALSE              0.75       -4     1 x    
#>  3 4.71     25 FALSE              0.75       -3     1 x    
#>  4 4.72     25 TRUE               0.75       -2     1 x    
#>  5 4.73     25 FALSE              0.75       -1     1 x    
#>  6 4.75     25 FALSE              0.75        1     1 x    
#>  7 4.76     25 TRUE               0.75        2     1 x    
#>  8 4.77     25 FALSE              0.75        3     1 x    
#>  9 4.78     25 FALSE              0.75        4     1 x    
#> 10 4.79     25 FALSE              0.75        5     1 x    
#> # ℹ 150 more rows
```
…
Instead of going about this manually, call
[`grim_map_total_n()`](https://lhdjung.github.io/scrutiny/reference/grim_map_total_n.md),
followed by
[`audit_total_n()`](https://lhdjung.github.io/scrutiny/reference/audit-special.md)
for summarizing the results. It will find two further plausible
scenarios in which both means are consistent; more on that below.

``` r
df <- tibble::tibble(x1 = "4.71", x2 = "5.3", n = 40)

# Detailed results:
df_tested <- grim_map_total_n(df)
df_tested
#> # A tibble: 24 × 8
#>    x         n n_change consistency both_consistent probability  case dir  
#>    <chr> <int>    <int> <lgl>       <lgl>                 <dbl> <int> <fct>
#>  1 4.71     20        0 FALSE       FALSE                  0.8      1 forth
#>  2 5.3      20        0 TRUE        FALSE                  0        1 forth
#>  3 4.71     19       -1 FALSE       FALSE                  0.81     1 forth
#>  4 5.3      21        1 TRUE        FALSE                  0        1 forth
#>  5 4.71     18       -2 FALSE       FALSE                  0.82     1 forth
#>  6 5.3      22        2 TRUE        FALSE                  0        1 forth
#>  7 4.71     17       -3 TRUE        TRUE                   0.83     1 forth
#>  8 5.3      23        3 TRUE        TRUE                   0        1 forth
#>  9 4.71     16       -4 FALSE       FALSE                  0.84     1 forth
#> 10 5.3      24        4 TRUE        FALSE                  0        1 forth
#> # ℹ 14 more rows
…
