…
A convenient way to restore trailing zeros in a data frame is
[`restore_zeros_df()`](https://lhdjung.github.io/scrutiny/reference/restore_zeros.md).
By default, it operates on all columns that are coercible to numeric
(factors don’t count):

``` r
iris <- tibble::as_tibble(iris)
iris %>% 
  restore_zeros_df(width = 3)
#> # A tibble: 150 × 5
#>    Sepal.Length Sepal.Width Petal.Length Petal.Width Species
#>    <chr>        <chr>       <chr>        <chr>       <fct>  
#>  1 5.100        3.500       1.400        0.200       setosa 
#>  2 4.900        3.000       1.400        0.200       setosa 
#>  3 4.700        3.200       1.300        0.200       setosa 
#>  4 4.600        3.100       1.500        0.200       setosa 
#>  5 5.000        3.600       1.400        0.200       setosa 
#>  6 5.400        3.900       1.700        0.400       setosa 
#>  7 4.600        3.400       1.400        0.300       setosa 
#>  8 5.000        3.400       1.500        0.200       setosa 
#>  9 4.400        2.900       1.400        0.200       setosa 
#> 10 4.900        3.100       1.500        0.100       setosa 
#> # ℹ 140 more rows
```

Specify columns mostly like you would in
[`dplyr::select()`](https://dplyr.tidyverse.org/reference/select.html):

``` r
iris %>% 
  restore_zeros_df(starts_with("Sepal"), width = 3)
#> # A tibble: 150 × 5
#>    Sepal.Length Sepal.Width Petal.Length Petal.Width Species
#>    <chr>        <chr>              <dbl>       <dbl> <fct>  
#>  1 5.100        3.500                1.4         0.2 setosa 
#>  2 4.900        3.000                1.4         0.2 setosa 
#>  3 4.700        3.200                1.3         0.2 setosa 
#>  4 4.600        3.100                1.5         0.2 setosa 
#>  5 5.000        3.600                1.4         0.2 setosa 
#>  6 5.400        3.900                1.7         0.4 setosa 
#>  7 4.600        3.400                1.4         0.3 setosa 
#>  8 5.000        3.400                1.5         0.2 setosa 
#>  9 4.400        2.900                1.4         0.2 setosa 
#> 10 4.900        3.100                1.5         0.1 setosa 
#> # ℹ 140 more rows
```
…
